Structure • tidywigits
…
s |>
  dplyr::filter(name == "puritytsv") |>
  dplyr::select("schema") |>
  tidyr::unnest("schema")

## # A tibble: 25 × 2
##    field                type 
##    <chr>                <chr>
##  1 purity               d    
##  2 normFactor           d    
##  3 score                d    
##  4 diploidProportion    d    
##  5 ploidy               d    
##  6 gender               c    
##  7 status               c    
##  8 polyclonalProportion d    
##  9 minPurity            d    
## 10 maxPurity            d    
## # ℹ 15 more rows
…
s |>
  dplyr::filter(.data$name == "puritytsv") |>
  dplyr::select("schema") |>
  tidyr::unnest("schema")

## # A tibble: 25 × 3
##    field                 type  description                                                          
##    <chr>                 <chr> <chr>                                                                
##  1 purity                d     purity of tumor in the sample                                        
##  2 norm_factor           d     internal factor to convert tumor ratio to cn.                        
##  3 score                 d     score of fit (lower is better)                                       
##  4 diploid_proportion    d     proportion of cn regions that have 1 (+- 0.2) minor and major allele 
##  5 ploidy                d     average ploidy of the tumor sample after adjusting for purity        
##  6 gender                c     one of male or female                                                
##  7 status                c     either pass or one or more warning or fail status                    
##  8 polyclonal_proportion d     proportion of copy number regions that are more than 0.25 from a who…
##  9 min_purity            d     minimum purity with score within 10% of best                         
## 10 max_purity            d     maximum purity with score within 10% of best                         
## # ℹ 15 more rows
…
ppl$config$get_raw_schema("puritytsv")

## # A tibble: 25 × 2
##    field                type 
##    <chr>                <chr>
##  1 purity               d    
##  2 normFactor           d    
##  3 score                d    
##  4 diploidProportion    d    
##  5 ploidy               d    
##  6 gender               c    
##  7 status               c    
##  8 polyclonalProportion d    
##  9 minPurity            d    
## 10 maxPurity            d    
## # ℹ 15 more rows

ppl$config$get_tidy_schema("puritytsv")

## # A tibble: 25 × 3
##    field                 type  description                                                          
##    <chr>                 <chr> <chr>                                                                
##  1 purity                d     purity of tumor in the sample                                        
##  2 norm_factor           d     internal factor to convert tumor ratio to cn.                        
##  3 score                 d     score of fit (lower is better)                                       
##  4 diploid_proportion    d     proportion of cn regions that have 1 (+- 0.2) minor and major allele 
##  5 ploidy                d     average ploidy of the tumor sample after adjusting for purity        
##  6 gender                c     one of male or female                                                
##  7 status                c     either pass or one or more warning or fail status                    
##  8 polyclonal_proportion d     proportion of copy number regions that are more than 0.25 from a who…
##  9 min_purity            d     minimum purity with score within 10% of best                         
## 10 max_purity            d     maximum purity with score within 10% of best                         
## # ℹ 15 more rows
…
